module go_kafka/go_producer

go 1.17

require (
	github.com/labstack/echo v3.3.10+incompatible
	github.com/labstack/gommon v0.3.1
	github.com/segmentio/kafka-go v0.4.27
	go.mongodb.org/mongo-driver v1.8.3
)

require (
	github.com/golang/snappy v0.0.1 // indirect
	github.com/klauspost/compress v1.13.6 // indirect
	github.com/mattn/go-colorable v0.1.11 // indirect
	github.com/mattn/go-isatty v0.0.14 // indirect
	github.com/pierrec/lz4 v2.6.0+incompatible // indirect
	github.com/valyala/bytebufferpool v1.0.0 // indirect
	github.com/valyala/fasttemplate v1.2.1 // indirect
	golang.org/x/crypto v0.0.0-20210817164053-32db794688a5 // indirect
	golang.org/x/net v0.0.0-20210913180222-943fd674d43e // indirect
	golang.org/x/sys v0.0.0-20211103235746-7861aae1554b // indirect
	golang.org/x/text v0.3.7 // indirect
)
